…
var(a$Tarsus)

3.03+1.71

summary(lmm)
**********************************************************************

Testing StatsWithSparrows18.R...

Output (only first 500 characters): 

**********************************************************************
# A tibble: 80 x 2
   StudentID count
   <fct>     <int>
 1 AF151093      3
 2 AH2912        2
 3 Ak70593       1
 4 AK70593       1
 5 AL0109        1
 6 AR0408        2
 7 AR1310        1
 8 ASR0312       2
 9 BC1603        1
10 cd1302        2
# … with 70 more rows
…
